%YAML 1.1
%TAG !u! tag:unity3d.com,2011:
--- !u!221 &22100000
AnimatorOverrideController:
  m_ObjectHideFlags: 0
  m_PrefabParentObject: {fileID: 0}
  m_PrefabInternal: {fileID: 0}
  m_Name: Enemy Brian
  m_Controller: {fileID: 9100000, guid: 43b4d0544d7737944973736ba7a2d079, type: 2}
  m_Clips: []
