%YAML 1.1
%TAG !u! tag:unity3d.com,2011:
--- !u!221 &22100000
AnimatorOverrideController:
  m_ObjectHideFlags: 0
  m_PrefabParentObject: {fileID: 0}
  m_PrefabInternal: {fileID: 0}
  m_Name: Enemy Shadow
  m_Controller: {fileID: 9100000, guid: 863cfd48de5f13b479458bcb8b882b61, type: 2}
  m_Clips: []
