%YAML 1.1
%TAG !u! tag:unity3d.com,2011:
--- !u!1045 &1
EditorBuildSettings:
  m_ObjectHideFlags: 0
  serializedVersion: 2
  m_Scenes:
  - enabled: 1
    path: Assets/Scenes/Select.unity
  - enabled: 1
    path: Assets/Scenes/Main.unity
  - enabled: 1
    path: Assets/Scenes/Main 2.unity
  - enabled: 1
    path: Assets/Scenes/Main 3.unity
  - enabled: 1
    path: Assets/Scenes/Main 4.unity
  - enabled: 1
    path: Assets/Scenes/Main 5.unity
  - enabled: 1
    path: Assets/Scenes/Main 6.unity
